…
- There are 6 cities has the estimated OR larger than 1

``` r
reject_null = 
  summary_cities |> 
  filter(conf.high < 1|conf.low > 1)

reject_null
```

    ## # A tibble: 22 × 4
    ##    city_state          OR conf.low conf.high
    ##    <fct>            <dbl>    <dbl>     <dbl>
    ##  1 Baltimore, MD    0.426    0.324     0.558
    ##  2 Baton Rouge, LA  0.381    0.204     0.684
    ##  3 Buffalo, NY      0.521    0.288     0.936
    ##  4 Chicago, IL      0.410    0.336     0.501
    ##  5 Cincinnati, OH   0.400    0.231     0.667
    ##  6 Columbus, OH     0.532    0.377     0.748
    ##  7 Denver, CO       0.479    0.233     0.962
    ##  8 Detroit, MI      0.582    0.462     0.734
    ##  9 Houston, TX      0.711    0.557     0.906
    ## 10 Jacksonville, FL 0.720    0.536     0.965
    ## # ℹ 12 more rows
…
